<?xml version="1.0" encoding="utf-8"?>
<!-- Generator: Adobe Illustrator 21.1.0, SVG Export Plug-In . SVG Version: 6.00 Build 0)  -->
<svg version="1.1" id="Layer_1" xmlns="http://www.w3.org/2000/svg" xmlns:xlink="http://www.w3.org/1999/xlink" x="0px" y="0px"
	 viewBox="0 0 512 512" style="enable-background:new 0 0 512 512;" xml:space="preserve">
<path style="fill:#EEE9E3;" d="M317,241c-41.4,0-75,33.6-75,75s33.6,75,75,75s75-33.6,75-75S358.4,241,317,241z M317,361
	c-24.8,0-45-20.2-45-45s20.2-45,45-45s45,20.2,45,45S341.8,361,317,361z"/>
<path style="fill:#EEE9E3;" d="M317,301c-8.3,0-15,6.7-15,15s6.7,15,15,15s15-6.7,15-15S325.3,301,317,301z"/>
<path style="fill:#4C4C47;" d="M497,181c-8.3,0-15,6.7-15,15c0,18.8-4.9,37-14.2,52.9C441.7,190,383.2,151,317,151
	c-38.5,0-75.7,13.8-105,38c0-24.1,7.1-50.5,22.3-80.9c5.1-10.3,7.8-21.5,7.8-33.1c0-47.5-43.5-83.3-91.1-73.3
	c-43.6,9.1-71.2,56.7-53.7,100.7c12.9,32.4,24.8,68.4,24.8,104.9V286c0,103.6,80,186.8,180,194.3V497c0,8.3,5.7,15,14,15
	s16-6.7,16-15v-16.8c100-7.9,180-96.4,180-201.7V196C512,187.7,505.3,181,497,181z M167,90c-8.3,0-15-6.7-15-15s6.7-15,15-15
	s15,6.7,15,15S175.3,90,167,90z M317,421c-57.9,0-105-47.1-105-105s47.1-105,105-105s105,47.1,105,105S374.9,421,317,421z"/>
<path style="fill:#4C4C47;" d="M69.3,113.5C59.2,87.9,59,57.8,72.3,30H15C6.7,30,0,36.7,0,45c0,39.5,32.8,71.6,71.6,74.5
	C70.8,117.5,70.1,115.4,69.3,113.5z"/>
</svg>
